{
  "apy": [
    {
      "id": 1,
      "State_name": "Andaman and Nicobar Islands",
      "District_Name": "NICOBARS",
      "Crop_Year":"2000",
      "Season":"Kharif",
      "Crop":"Arecanut",
      "Area":"1254",
      "Production":"2000"
    },
    {
      "id": 2,
      "State_name": "Andaman and Nicobar Islands",
      "District_Name": "NICOBARS",
      "Crop_Year":"2000",
      "Season":"Kharif",
      "Crop":"Other Kharif pulses",
      "Area":"2",
      "Production":"1"
    },
    {
      "id": 3,
      "State_name": "Andaman and Nicobar Islands",
      "District_Name": "NICOBARS",
      "Crop_Year":"2000",
      "Season":"Kharif",
      "Crop":"Rice",
      "Area":"102",
      "Production":"3210"
    },
    {
      "id": 4,
      "State_name": "Arunachal Pradesh",
      "District_Name": "TAWANG",
      "Crop_Year":"2005",
      "Season":"Rabi",
      "Crop":"Wheat",
      "Area":"1702",
      "Production":"2601"
    },
    {
      "id": 5,
      "State_name": "Arunachal Pradesh",
      "District_Name": "TAWANG",
      "Crop_Year":"2005",
      "Season":"Whole Year",
      "Crop":"Dry ginger",
      "Area":"26",
      "Production":"65"
    },
    {
      "id": 6,
      "State_name": "Arunachal Pradesh",
      "District_Name": "VIZIANAGARAM",
      "Crop_Year":"2003",
      "Season":"Whole Year",
      "Crop":"Cabbage",
      "Area":"139",
      "Production":"0"
    },
    {
      "id": 7,
      "State_name": "Tamil Nadu",
      "District_Name": "VIRUDHUNAGAR",
      "Crop_Year":"2000",
      "Season":"Kharif",
      "Crop":"Other Kharif pulses",
      "Area":"2563",
      "Production":"487"
    },
    {
      "id": 8,
      "State_name": "Uttar Pradesh",
      "District_Name": "SHAHJAHANPUR",
      "Crop_Year":"2003",
      "Season":"Kharif",
      "Crop":"Arhar/Tur",
      "Area":"1666",
      "Production":"866"
    },
    {
      "id": 9,
      "State_name": "Telangana",
      "District_Name": "NIZAMABAD",
      "Crop_Year":"1998",
      "Season":"Rabi",
      "Crop":"Arhar/Tur",
      "Area":"100",
      "Production":"0"
    },{
      "id": 10,
      "State_name": "Uttar Pradesh",
      "District_Name": "SANT RAVIDAS NAGAR",
      "Crop_Year":"1999",
      "Season":"Whole Year",
      "Crop":"Sugarcane",
      "Area":"1993",
      "Production":"62385"
    },
    {
      "id": 11,
      "State_name": "Puducherry",
      "District_Name": "KARAIKAL",
      "Crop_Year":"2012",
      "Season":"Summer",
      "Crop":"Urad",
      "Area":"384",
      "Production":"122"
    },
    {
      "id": 12,
      "State_name": "Punjab",
      "District_Name": "MANSA",
      "Crop_Year":"2011",
      "Season":"Rabi",
      "Crop":"Barley",
      "Area":"1000",
      "Production":"3000"
    },{
      "id": 13,
      "State_name": "Rajasthan",
      "District_Name": "Rajasthan",
      "Crop_Year":"2005",
      "Season":"Whole Year",
      "Crop":"Sugarcane",
      "Area":"3251",
      "Production":"178372"
    }

  ]
}
